<?xml version="1.0" encoding="UTF-8"?>
<testsuite name="com.example.SampleTest" tests="4" skipped="0" failures="0" errors="0" timestamp="2016-07-13T08:25:39" hostname="cellpromote.local" time="0.005">
  <properties/>
  <testcase name="testAdd" classname="com.example.SampleTest" time="0.003"/>
  <testcase name="testSubtract" classname="com.example.SampleTest" time="0.0"/>
  <testcase name="division" classname="com.example.SampleTest" time="0.001"/>
  <testcase name="multiplication" classname="com.example.SampleTest" time="0.0"/>
  <system-out><![CDATA[]]></system-out>
  <system-err><![CDATA[]]></system-err>
</testsuite>
